{ "frames": [
   {
    "filename": "/home/alexjgriffith/Documents/lisp-game-jam-2020-fall/grass.aseprite",
    "frame": { "x": 0, "y": 0, "w": 8, "h": 8 },
    "rotated": false,
    "trimmed": false,
    "spriteSourceSize": { "x": 0, "y": 0, "w": 8, "h": 8 },
    "sourceSize": { "w": 8, "h": 8 },
    "duration": 100
   }
 ],
 "meta": {
  "app": "http://www.aseprite.org/",
  "version": "1.2.18-x64",
  "image": "grass.png",
  "format": "I8",
  "size": { "w": 8, "h": 8 },
  "scale": "1",
  "frameTags": [
  ]
 }
}
